1 10 20
100 200 125
201 210 89
900 1000 174
753 766 153
1477 1560 154
1460 1542 172
2780 2865 173
2151 2195 170
5210 5299 192
4966 5037 179
3348 3392 181
4735 4834 197
4866 4909 179
2694 2742 160
10325 10412 224
4444 4537 184
9440 9474 154
6137 6215 262
11628 11647 175
7901 7991 252
5103 5113 179
5189 5195 148
19407 19420 181
1655 1697 180
20351 20372 181
11092 11176 237
19175 19219 199
23577 23650 176
17275 17367 173
14000 14049 196
13337 13427 214
15084 15132 222
1 999999 525
